proto\Zodiac$SignResponse$Builder.class
proto\ZodiacServiceGrpc$1.class
proto\Zodiac$1.class
proto\Zodiac$DateRequest.class
proto\ZodiacServiceGrpc$ZodiacServiceImplBase.class
proto\ZodiacServiceGrpc$ZodiacServiceFutureStub.class
proto\Zodiac$SignResponse$1.class
proto\ZodiacServiceGrpc$ZodiacServiceBaseDescriptorSupplier.class
proto\Zodiac$DateRequest$1.class
proto\ZodiacServiceGrpc$ZodiacServiceBlockingStub.class
proto\Zodiac$SignResponseOrBuilder.class
proto\ZodiacServiceGrpc$MethodHandlers.class
proto\Zodiac$DateRequestOrBuilder.class
MainClient.class
proto\ZodiacServiceGrpc$ZodiacServiceMethodDescriptorSupplier.class
proto\Zodiac.class
proto\ZodiacServiceGrpc$ZodiacServiceFileDescriptorSupplier.class
proto\ZodiacServiceGrpc$ZodiacServiceStub.class
proto\Zodiac$DateRequest$Builder.class
proto\Zodiac$SignResponse.class
proto\ZodiacServiceGrpc.class
Validations.class
